%YAML 1.1
%TAG !u! tag:unity3d.com,2011:
--- !u!1045 &1
EditorBuildSettings:
  m_ObjectHideFlags: 0
  serializedVersion: 2
  m_Scenes:
  - enabled: 1
    path: Assets/Scenes/Menu.unity
    guid: 2a5a195fb474b0b43ad41da08229e386
  - enabled: 1
    path: Assets/Scenes/StartingStory.unity
    guid: 387497c51f9713a408b82f88f3db6175
  - enabled: 1
    path: Assets/Scenes/Game.unity
    guid: 8f5d98915c3ad1340ad1718cb95d1107
  - enabled: 1
    path: Assets/Scenes/Win1.unity
    guid: 5fd068c7bd67fb04c942f7c7e3cc2326
  - enabled: 1
    path: Assets/Scenes/Win2.unity
    guid: 69f55cbe480a1194a82bdbfb0f345e76
  - enabled: 1
    path: Assets/Scenes/Lose.unity
    guid: 20cd3f5f26dcf92498cb73efd0542b01
  m_configObjects: {}
